{
  "version": "0.0.1",
  "catchAll": {},
  "startNode": "entry",
  "description": "",
  "nodes": [
    {
      "id": "0aef5017de",
      "name": "entry",
      "onEnter": [
        "say #!builtin_text-Y6K9Es"
      ],
      "onReceive": null,
      "next": [
        {
          "condition": "true",
          "node": "Fragen_Bewerbung"
        }
      ],
      "type": "standard"
    },
    {
      "id": "skill-9436d5",
      "type": "skill-call",
      "skill": "choice",
      "name": "Fragen_Bewerbung",
      "flow": "skills/choice-9436d5.flow.json",
      "next": [
        {
          "caption": "User picked [1]",
          "condition": "temp['skill-choice-ret-1rgvdvcc1d'] == \"1\"",
          "node": "Antwort_Frage1"
        },
        {
          "caption": "User picked [2]",
          "condition": "temp['skill-choice-ret-1rgvdvcc1d'] == \"2\"",
          "node": "Antwort_Frage2"
        },
        {
          "caption": "User picked [3]",
          "condition": "temp['skill-choice-ret-1rgvdvcc1d'] == \"3\"",
          "node": "Antwort_Frage3"
        },
        {
          "caption": "User picked [4]",
          "condition": "temp['skill-choice-ret-1rgvdvcc1d'] == \"4\"",
          "node": "Antwort_Frage4"
        },
        {
          "caption": "User picked [5]",
          "condition": "temp['skill-choice-ret-1rgvdvcc1d'] == \"5\"",
          "node": "Antwort_Frage5"
        },
        {
          "caption": "User picked [flow_end]",
          "condition": "temp['skill-choice-ret-1rgvdvcc1d'] == \"flow_end\"",
          "node": "choice-7000c0"
        },
        {
          "caption": "On failure",
          "condition": "true",
          "node": "failure"
        }
      ],
      "onEnter": null,
      "onReceive": null
    },
    {
      "id": "skill-7000c0",
      "type": "skill-call",
      "skill": "choice",
      "name": "choice-7000c0",
      "flow": "skills/choice-7000c0.flow.json",
      "next": [
        {
          "caption": "User picked [frage6]",
          "condition": "temp['skill-choice-ret-0q7j3bvkca'] == \"frage6\"",
          "node": "Antwort_Frage6"
        },
        {
          "caption": "User picked [frage7]",
          "condition": "temp['skill-choice-ret-0q7j3bvkca'] == \"frage7\"",
          "node": "Antwort_Frage7"
        },
        {
          "caption": "User picked [frage8]",
          "condition": "temp['skill-choice-ret-0q7j3bvkca'] == \"frage8\"",
          "node": "Antwort_Frage8"
        },
        {
          "caption": "User picked [frage9]",
          "condition": "temp['skill-choice-ret-0q7j3bvkca'] == \"frage9\"",
          "node": "Antwort_Frage9"
        },
        {
          "caption": "User picked [frage10]",
          "condition": "temp['skill-choice-ret-0q7j3bvkca'] == \"frage10\"",
          "node": "Antwort_Frage10"
        },
        {
          "caption": "User picked [flow_end]",
          "condition": "temp['skill-choice-ret-0q7j3bvkca'] == \"flow_end\"",
          "node": "Frage_nicht_dabei"
        },
        {
          "caption": "On failure",
          "condition": "true",
          "node": "failure"
        }
      ],
      "onEnter": null,
      "onReceive": null
    },
    {
      "id": "27f1aa6ba0",
      "name": "failure",
      "next": [],
      "onEnter": [],
      "onReceive": null,
      "type": "standard"
    },
    {
      "id": "7ff8e19a73",
      "name": "Frage_nicht_dabei",
      "next": [
        {
          "condition": "true",
          "node": "Student_eigene_Frage.flow.json"
        }
      ],
      "onEnter": [],
      "onReceive": null,
      "type": "standard"
    },
    {
      "id": "d3454ec227",
      "name": "Antwort_Frage1",
      "next": [
        {
          "condition": "true",
          "node": "choice-b8ca73"
        }
      ],
      "onEnter": [
        "say #!builtin_text-Kv9rQY"
      ],
      "onReceive": null,
      "type": "standard"
    },
    {
      "id": "f00f9c91e6",
      "name": "Antwort_Frage2",
      "next": [
        {
          "condition": "true",
          "node": "choice-b8ca73"
        }
      ],
      "onEnter": [
        "say #!builtin_text-1RW9eR"
      ],
      "onReceive": null,
      "type": "standard"
    },
    {
      "id": "8379424f50",
      "name": "Antwort_Frage3",
      "next": [
        {
          "condition": "true",
          "node": "choice-b8ca73"
        }
      ],
      "onEnter": [
        "say #!builtin_text-jeRcSW"
      ],
      "onReceive": null,
      "type": "standard"
    },
    {
      "id": "3e745a9160",
      "name": "Antwort_Frage4",
      "next": [
        {
          "condition": "true",
          "node": "choice-b8ca73"
        }
      ],
      "onEnter": [
        "say #!builtin_text-gbZ9VC"
      ],
      "onReceive": null,
      "type": "standard"
    },
    {
      "id": "90c3bfc595",
      "name": "Antwort_Frage5",
      "next": [
        {
          "condition": "true",
          "node": "choice-b8ca73"
        }
      ],
      "onEnter": [
        "say #!builtin_text-2cwtrf"
      ],
      "onReceive": null,
      "type": "standard"
    },
    {
      "id": "3c3dbe5355",
      "name": "Antwort_Frage6",
      "next": [
        {
          "condition": "true",
          "node": "choice-b8ca73"
        }
      ],
      "onEnter": [
        "say #!builtin_text-H9VIWT"
      ],
      "onReceive": null,
      "type": "standard"
    },
    {
      "id": "3bdf000a26",
      "name": "Antwort_Frage7",
      "next": [
        {
          "condition": "true",
          "node": "choice-b8ca73"
        }
      ],
      "onEnter": [
        "say #!builtin_text-Q9EDiR"
      ],
      "onReceive": null,
      "type": "standard"
    },
    {
      "id": "0bc5c4492c",
      "name": "Antwort_Frage8",
      "next": [
        {
          "condition": "true",
          "node": "choice-b8ca73"
        }
      ],
      "onEnter": [
        "say #!builtin_text-KA9y9r"
      ],
      "onReceive": null,
      "type": "standard"
    },
    {
      "id": "303bc9b0f5",
      "name": "Antwort_Frage9",
      "next": [
        {
          "condition": "true",
          "node": "choice-b8ca73"
        }
      ],
      "onEnter": [
        "say #!builtin_text-5BC9sS"
      ],
      "onReceive": null,
      "type": "standard"
    },
    {
      "id": "60ff033501",
      "name": "Antwort_Frage10",
      "next": [
        {
          "condition": "true",
          "node": "choice-b8ca73"
        }
      ],
      "onEnter": [
        "say #!builtin_text-9B1kMc"
      ],
      "onReceive": null,
      "type": "standard"
    },
    {
      "id": "skill-b8ca73",
      "type": "skill-call",
      "skill": "choice",
      "name": "choice-b8ca73",
      "flow": "skills/choice-b8ca73.flow.json",
      "next": [
        {
          "caption": "User picked [ja]",
          "condition": "temp['skill-choice-ret-zqhcwz9d70'] == \"ja\"",
          "node": "main.flow.json"
        },
        {
          "caption": "User picked [nein]",
          "condition": "temp['skill-choice-ret-zqhcwz9d70'] == \"nein\"",
          "node": "node-6cf1"
        },
        {
          "caption": "On failure",
          "condition": "true",
          "node": "main.flow.json"
        }
      ],
      "onEnter": null,
      "onReceive": null
    },
    {
      "id": "5874fd2dd5",
      "name": "node-6cf1",
      "next": [],
      "onEnter": [
        "say #!builtin_text-mMHRZt"
      ],
      "onReceive": null,
      "type": "standard"
    }
  ]
}