{
  "nodes": [
    {
      "id": "0aef5017de",
      "position": {
        "x": 75,
        "y": 50
      }
    },
    {
      "id": "skill-9436d5",
      "position": {
        "x": 410,
        "y": 35
      }
    },
    {
      "id": "skill-7000c0",
      "position": {
        "x": 790,
        "y": 165
      }
    },
    {
      "id": "27f1aa6ba0",
      "position": {
        "x": 965,
        "y": 545
      }
    },
    {
      "id": "7ff8e19a73",
      "position": {
        "x": 1065,
        "y": 445
      }
    },
    {
      "id": "d3454ec227",
      "position": {
        "x": 525,
        "y": -175
      }
    },
    {
      "id": "f00f9c91e6",
      "position": {
        "x": 885,
        "y": -215
      }
    },
    {
      "id": "8379424f50",
      "position": {
        "x": 720,
        "y": -35
      }
    },
    {
      "id": "3e745a9160",
      "position": {
        "x": 970,
        "y": -65
      }
    },
    {
      "id": "90c3bfc595",
      "position": {
        "x": 1270,
        "y": -160
      }
    },
    {
      "id": "3c3dbe5355",
      "position": {
        "x": 1020,
        "y": 75
      }
    },
    {
      "id": "3bdf000a26",
      "position": {
        "x": 1380,
        "y": 210
      }
    },
    {
      "id": "0bc5c4492c",
      "position": {
        "x": 1030,
        "y": 275
      }
    },
    {
      "id": "303bc9b0f5",
      "position": {
        "x": 1285,
        "y": 375
      }
    },
    {
      "id": "60ff033501",
      "position": {
        "x": 1395,
        "y": 480
      }
    },
    {
      "id": "skill-b8ca73",
      "position": {
        "x": 1900,
        "y": 220
      }
    },
    {
      "id": "5874fd2dd5",
      "position": {
        "x": 2315,
        "y": 295
      }
    }
  ],
  "links": [
    {
      "source": "0aef5017de",
      "sourcePort": "out0",
      "target": "skill-9436d5",
      "points": [
        {
          "x": 275,
          "y": 149
        },
        {
          "x": 410,
          "y": 53
        }
      ]
    },
    {
      "source": "0bc5c4492c",
      "sourcePort": "out0",
      "target": "skill-b8ca73",
      "points": [
        {
          "x": 1230,
          "y": 405
        },
        {
          "x": 1901,
          "y": 238
        }
      ]
    },
    {
      "source": "303bc9b0f5",
      "sourcePort": "out0",
      "target": "skill-b8ca73",
      "points": [
        {
          "x": 1485,
          "y": 449
        },
        {
          "x": 1901,
          "y": 238
        }
      ]
    },
    {
      "source": "3bdf000a26",
      "sourcePort": "out0",
      "target": "skill-b8ca73",
      "points": [
        {
          "x": 1580,
          "y": 340
        },
        {
          "x": 1901,
          "y": 238
        }
      ]
    },
    {
      "source": "3c3dbe5355",
      "sourcePort": "out0",
      "target": "skill-b8ca73",
      "points": [
        {
          "x": 1220,
          "y": 205
        },
        {
          "x": 1901,
          "y": 238
        }
      ]
    },
    {
      "source": "3e745a9160",
      "sourcePort": "out0",
      "target": "skill-b8ca73",
      "points": [
        {
          "x": 1170,
          "y": 47
        },
        {
          "x": 1901,
          "y": 238
        }
      ]
    },
    {
      "source": "60ff033501",
      "sourcePort": "out0",
      "target": "skill-b8ca73",
      "points": [
        {
          "x": 1595,
          "y": 604
        },
        {
          "x": 1901,
          "y": 238
        }
      ]
    },
    {
      "source": "8379424f50",
      "sourcePort": "out0",
      "target": "skill-b8ca73",
      "points": [
        {
          "x": 920,
          "y": 77
        },
        {
          "x": 1901,
          "y": 238
        }
      ]
    },
    {
      "source": "90c3bfc595",
      "sourcePort": "out0",
      "target": "skill-b8ca73",
      "points": [
        {
          "x": 1470,
          "y": -30
        },
        {
          "x": 1901,
          "y": 238
        }
      ]
    },
    {
      "source": "d3454ec227",
      "sourcePort": "out0",
      "target": "skill-b8ca73",
      "points": [
        {
          "x": 725,
          "y": -63
        },
        {
          "x": 1901,
          "y": 238
        }
      ]
    },
    {
      "source": "f00f9c91e6",
      "sourcePort": "out0",
      "target": "skill-b8ca73",
      "points": [
        {
          "x": 1085,
          "y": -103
        },
        {
          "x": 1901,
          "y": 238
        }
      ]
    },
    {
      "source": "skill-7000c0",
      "sourcePort": "out2",
      "target": "0bc5c4492c",
      "points": [
        {
          "x": 990,
          "y": 270
        },
        {
          "x": 1030,
          "y": 293
        }
      ]
    },
    {
      "source": "skill-7000c0",
      "sourcePort": "out6",
      "target": "27f1aa6ba0",
      "points": [
        {
          "x": 990,
          "y": 392
        },
        {
          "x": 966,
          "y": 563
        }
      ]
    },
    {
      "source": "skill-7000c0",
      "sourcePort": "out3",
      "target": "303bc9b0f5",
      "points": [
        {
          "x": 990,
          "y": 300
        },
        {
          "x": 1285,
          "y": 393
        }
      ]
    },
    {
      "source": "skill-7000c0",
      "sourcePort": "out1",
      "target": "3bdf000a26",
      "points": [
        {
          "x": 990,
          "y": 239
        },
        {
          "x": 1380,
          "y": 228
        }
      ]
    },
    {
      "source": "skill-7000c0",
      "sourcePort": "out0",
      "target": "3c3dbe5355",
      "points": [
        {
          "x": 990,
          "y": 209
        },
        {
          "x": 1020,
          "y": 92
        }
      ]
    },
    {
      "source": "skill-7000c0",
      "sourcePort": "out4",
      "target": "60ff033501",
      "points": [
        {
          "x": 990,
          "y": 331
        },
        {
          "x": 1396,
          "y": 498
        }
      ]
    },
    {
      "source": "skill-7000c0",
      "sourcePort": "out5",
      "target": "7ff8e19a73",
      "points": [
        {
          "x": 990,
          "y": 361
        },
        {
          "x": 1066,
          "y": 463
        }
      ]
    },
    {
      "source": "skill-9436d5",
      "sourcePort": "out6",
      "target": "27f1aa6ba0",
      "points": [
        {
          "x": 610,
          "y": 262
        },
        {
          "x": 966,
          "y": 563
        }
      ]
    },
    {
      "source": "skill-9436d5",
      "sourcePort": "out3",
      "target": "3e745a9160",
      "points": [
        {
          "x": 610,
          "y": 170
        },
        {
          "x": 970,
          "y": -47
        }
      ]
    },
    {
      "source": "skill-9436d5",
      "sourcePort": "out2",
      "target": "8379424f50",
      "points": [
        {
          "x": 610,
          "y": 140
        },
        {
          "x": 721,
          "y": -17
        }
      ]
    },
    {
      "source": "skill-9436d5",
      "sourcePort": "out4",
      "target": "90c3bfc595",
      "points": [
        {
          "x": 610,
          "y": 201
        },
        {
          "x": 1270,
          "y": -143
        }
      ]
    },
    {
      "source": "skill-9436d5",
      "sourcePort": "out0",
      "target": "d3454ec227",
      "points": [
        {
          "x": 610,
          "y": 79
        },
        {
          "x": 526,
          "y": -157
        }
      ]
    },
    {
      "source": "skill-9436d5",
      "sourcePort": "out1",
      "target": "f00f9c91e6",
      "points": [
        {
          "x": 610,
          "y": 109
        },
        {
          "x": 885,
          "y": -197
        }
      ]
    },
    {
      "source": "skill-9436d5",
      "sourcePort": "out5",
      "target": "skill-7000c0",
      "points": [
        {
          "x": 610,
          "y": 231
        },
        {
          "x": 791,
          "y": 183
        }
      ]
    },
    {
      "source": "skill-b8ca73",
      "sourcePort": "out1",
      "target": "5874fd2dd5",
      "points": [
        {
          "x": 2100,
          "y": 294
        },
        {
          "x": 2315,
          "y": 312
        }
      ]
    }
  ]
}