{
  "version": "0.0.1",
  "catchAll": {},
  "startNode": "entry",
  "description": "",
  "nodes": [
    {
      "id": "528de46095",
      "name": "entry",
      "onEnter": [
        "say #!builtin_text-due2jt"
      ],
      "onReceive": null,
      "next": [
        {
          "condition": "true",
          "node": "Fragen"
        }
      ],
      "type": "standard"
    },
    {
      "id": "skill-e5dae2",
      "type": "skill-call",
      "skill": "choice",
      "name": "Fragen",
      "flow": "skills/choice-e5dae2.flow.json",
      "next": [
        {
          "caption": "User picked [frage1]",
          "condition": "temp['skill-choice-ret-kdscu4kp4v'] == \"frage1\"",
          "node": "Antwort_Frage1"
        },
        {
          "caption": "User picked [frage2]",
          "condition": "temp['skill-choice-ret-kdscu4kp4v'] == \"frage2\"",
          "node": "Antwort_Frage2"
        },
        {
          "caption": "User picked [frage3]",
          "condition": "temp['skill-choice-ret-kdscu4kp4v'] == \"frage3\"",
          "node": "Antwort_Frage3"
        },
        {
          "caption": "User picked [frage4]",
          "condition": "temp['skill-choice-ret-kdscu4kp4v'] == \"frage4\"",
          "node": "Antwort_Frage4"
        },
        {
          "caption": "User picked [flow_end]",
          "condition": "temp['skill-choice-ret-kdscu4kp4v'] == \"flow_end\"",
          "node": "Frage_nicht_vorhanden"
        },
        {
          "caption": "On failure",
          "condition": "true",
          "node": "failure"
        }
      ],
      "onEnter": null,
      "onReceive": null
    },
    {
      "id": "6d3cec9827",
      "name": "Antwort_Frage1",
      "next": [
        {
          "condition": "true",
          "node": "choice-ded4d5"
        }
      ],
      "onEnter": [
        "say #!builtin_text-D95TjU"
      ],
      "onReceive": null,
      "type": "standard"
    },
    {
      "id": "01cb97978f",
      "name": "Antwort_Frage2",
      "next": [
        {
          "condition": "true",
          "node": "choice-ded4d5"
        }
      ],
      "onEnter": [
        "say #!builtin_text--0eo2b"
      ],
      "onReceive": null,
      "type": "standard"
    },
    {
      "id": "9709709554",
      "name": "Antwort_Frage4",
      "next": [
        {
          "condition": "true",
          "node": "choice-ded4d5"
        }
      ],
      "onEnter": [
        "say #!builtin_text-MP2oqV"
      ],
      "onReceive": null,
      "type": "standard"
    },
    {
      "id": "213437b1ac",
      "name": "Antwort_Frage3",
      "next": [
        {
          "condition": "true",
          "node": "choice-ded4d5"
        }
      ],
      "onEnter": [
        "say #!builtin_text-jEa6mZ"
      ],
      "onReceive": null,
      "type": "standard"
    },
    {
      "id": "9a68b2900b",
      "name": "Frage_nicht_vorhanden",
      "next": [
        {
          "condition": "true",
          "node": "Student_eigene_Frage.flow.json"
        }
      ],
      "onEnter": [],
      "onReceive": null,
      "type": "standard"
    },
    {
      "id": "534415f86c",
      "name": "failure",
      "next": [],
      "onEnter": [],
      "onReceive": null,
      "type": "standard"
    },
    {
      "id": "skill-ded4d5",
      "type": "skill-call",
      "skill": "choice",
      "name": "choice-ded4d5",
      "flow": "skills/choice-ded4d5.flow.json",
      "next": [
        {
          "caption": "User picked [ja]",
          "condition": "temp['skill-choice-ret-74ldihy9ii'] == \"ja\"",
          "node": "main.flow.json"
        },
        {
          "caption": "User picked [nein]",
          "condition": "temp['skill-choice-ret-74ldihy9ii'] == \"nein\"",
          "node": "node-40f3"
        },
        {
          "caption": "On failure",
          "condition": "true",
          "node": "main.flow.json"
        }
      ],
      "onEnter": null,
      "onReceive": null
    },
    {
      "id": "187bf028c3",
      "name": "node-40f3",
      "next": [],
      "onEnter": [
        "say #!builtin_text-mMHRZt"
      ],
      "onReceive": null,
      "type": "standard"
    }
  ]
}