{
  "nodes": [
    {
      "id": "528de46095",
      "position": {
        "x": 100,
        "y": 100
      }
    },
    {
      "id": "skill-e5dae2",
      "position": {
        "x": 410,
        "y": 95
      }
    },
    {
      "id": "6d3cec9827",
      "position": {
        "x": 655,
        "y": -55
      }
    },
    {
      "id": "01cb97978f",
      "position": {
        "x": 880,
        "y": 45
      }
    },
    {
      "id": "9709709554",
      "position": {
        "x": 950,
        "y": 205
      }
    },
    {
      "id": "213437b1ac",
      "position": {
        "x": 670,
        "y": 110
      }
    },
    {
      "id": "9a68b2900b",
      "position": {
        "x": 845,
        "y": 390
      }
    },
    {
      "id": "534415f86c",
      "position": {
        "x": 575,
        "y": 465
      }
    },
    {
      "id": "skill-ded4d5",
      "position": {
        "x": 1415,
        "y": 110
      }
    },
    {
      "id": "187bf028c3",
      "position": {
        "x": 1735,
        "y": 235
      }
    }
  ],
  "links": [
    {
      "source": "01cb97978f",
      "sourcePort": "out0",
      "target": "skill-ded4d5",
      "points": [
        {
          "x": 1080,
          "y": 187
        },
        {
          "x": 1416,
          "y": 128
        }
      ]
    },
    {
      "source": "213437b1ac",
      "sourcePort": "out0",
      "target": "skill-ded4d5",
      "points": [
        {
          "x": 870,
          "y": 246
        },
        {
          "x": 1416,
          "y": 128
        }
      ]
    },
    {
      "source": "528de46095",
      "sourcePort": "out0",
      "target": "skill-e5dae2",
      "points": [
        {
          "x": 300,
          "y": 211
        },
        {
          "x": 411,
          "y": 113
        }
      ]
    },
    {
      "source": "6d3cec9827",
      "sourcePort": "out0",
      "target": "skill-ded4d5",
      "points": [
        {
          "x": 855,
          "y": 81
        },
        {
          "x": 1416,
          "y": 128
        }
      ]
    },
    {
      "source": "9709709554",
      "sourcePort": "out0",
      "target": "skill-ded4d5",
      "points": [
        {
          "x": 1150,
          "y": 347
        },
        {
          "x": 1416,
          "y": 128
        }
      ]
    },
    {
      "source": "skill-ded4d5",
      "sourcePort": "out1",
      "target": "187bf028c3",
      "points": [
        {
          "x": 1615,
          "y": 184
        },
        {
          "x": 1736,
          "y": 253
        }
      ]
    },
    {
      "source": "skill-e5dae2",
      "sourcePort": "out1",
      "target": "01cb97978f",
      "points": [
        {
          "x": 610,
          "y": 169
        },
        {
          "x": 881,
          "y": 63
        }
      ]
    },
    {
      "source": "skill-e5dae2",
      "sourcePort": "out2",
      "target": "213437b1ac",
      "points": [
        {
          "x": 610,
          "y": 200
        },
        {
          "x": 671,
          "y": 128
        }
      ]
    },
    {
      "source": "skill-e5dae2",
      "sourcePort": "out5",
      "target": "534415f86c",
      "points": [
        {
          "x": 610,
          "y": 291
        },
        {
          "x": 576,
          "y": 483
        }
      ]
    },
    {
      "source": "skill-e5dae2",
      "sourcePort": "out0",
      "target": "6d3cec9827",
      "points": [
        {
          "x": 610,
          "y": 139
        },
        {
          "x": 656,
          "y": -37
        }
      ]
    },
    {
      "source": "skill-e5dae2",
      "sourcePort": "out3",
      "target": "9709709554",
      "points": [
        {
          "x": 610,
          "y": 230
        },
        {
          "x": 951,
          "y": 223
        }
      ]
    },
    {
      "source": "skill-e5dae2",
      "sourcePort": "out4",
      "target": "9a68b2900b",
      "points": [
        {
          "x": 610,
          "y": 261
        },
        {
          "x": 846,
          "y": 408
        }
      ]
    }
  ]
}