{
  "nodes": [
    {
      "id": "c89ae008e8",
      "position": {
        "x": 105,
        "y": 90
      }
    },
    {
      "id": "2fa1f3a97d",
      "position": {
        "x": 710,
        "y": 5
      }
    },
    {
      "id": "af63167e58",
      "position": {
        "x": 760,
        "y": 185
      }
    },
    {
      "id": "skill-db4f0f",
      "position": {
        "x": 375,
        "y": 100
      }
    },
    {
      "id": "skill-5a8c70",
      "position": {
        "x": 710,
        "y": 335
      }
    },
    {
      "id": "b90ebc9359",
      "position": {
        "x": 765,
        "y": 860
      }
    },
    {
      "id": "661970d6c6",
      "position": {
        "x": 1055,
        "y": 130
      }
    },
    {
      "id": "c0633d1af9",
      "position": {
        "x": 440,
        "y": 370
      }
    },
    {
      "id": "4ceea7face",
      "position": {
        "x": 495,
        "y": 515
      }
    },
    {
      "id": "7655f64e00",
      "position": {
        "x": 1190,
        "y": 445
      }
    },
    {
      "id": "076ed6651d",
      "position": {
        "x": 1175,
        "y": 610
      }
    },
    {
      "id": "bdc85e917c",
      "position": {
        "x": 975,
        "y": 495
      }
    },
    {
      "id": "b95381ca05",
      "position": {
        "x": 510,
        "y": 665
      }
    },
    {
      "id": "fc268d1f01",
      "position": {
        "x": 1080,
        "y": 305
      }
    },
    {
      "id": "9f488aa73e",
      "position": {
        "x": 1090,
        "y": 780
      }
    },
    {
      "id": "skill-4a80e5",
      "position": {
        "x": 210,
        "y": 460
      }
    },
    {
      "id": "2e79b5cf91",
      "position": {
        "x": 1665,
        "y": 335
      }
    },
    {
      "id": "skill-b984f0",
      "position": {
        "x": 1970,
        "y": 325
      }
    },
    {
      "id": "cf14dcf4de",
      "position": {
        "x": 2315,
        "y": 395
      }
    }
  ],
  "links": [
    {
      "source": "076ed6651d",
      "sourcePort": "out0",
      "target": "2e79b5cf91",
      "points": [
        {
          "x": 1375,
          "y": 740
        },
        {
          "x": 1666,
          "y": 353
        }
      ]
    },
    {
      "source": "2e79b5cf91",
      "sourcePort": "out0",
      "target": "skill-b984f0",
      "points": [
        {
          "x": 1865,
          "y": 379
        },
        {
          "x": 1971,
          "y": 343
        }
      ]
    },
    {
      "source": "2fa1f3a97d",
      "sourcePort": "out0",
      "target": "2e79b5cf91",
      "points": [
        {
          "x": 910,
          "y": 135
        },
        {
          "x": 1666,
          "y": 353
        }
      ]
    },
    {
      "source": "4ceea7face",
      "sourcePort": "out0",
      "target": "2e79b5cf91",
      "points": [
        {
          "x": 695,
          "y": 645
        },
        {
          "x": 1666,
          "y": 353
        }
      ]
    },
    {
      "source": "661970d6c6",
      "sourcePort": "out0",
      "target": "2e79b5cf91",
      "points": [
        {
          "x": 1255,
          "y": 260
        },
        {
          "x": 1666,
          "y": 353
        }
      ]
    },
    {
      "source": "7655f64e00",
      "sourcePort": "out0",
      "target": "2e79b5cf91",
      "points": [
        {
          "x": 1390,
          "y": 557
        },
        {
          "x": 1666,
          "y": 353
        }
      ]
    },
    {
      "source": "af63167e58",
      "sourcePort": "out0",
      "target": "2e79b5cf91",
      "points": [
        {
          "x": 960,
          "y": 315
        },
        {
          "x": 1666,
          "y": 353
        }
      ]
    },
    {
      "source": "b95381ca05",
      "sourcePort": "out0",
      "target": "2e79b5cf91",
      "points": [
        {
          "x": 710,
          "y": 795
        },
        {
          "x": 1666,
          "y": 353
        }
      ]
    },
    {
      "source": "bdc85e917c",
      "sourcePort": "out0",
      "target": "2e79b5cf91",
      "points": [
        {
          "x": 1175,
          "y": 625
        },
        {
          "x": 1666,
          "y": 353
        }
      ]
    },
    {
      "source": "c0633d1af9",
      "sourcePort": "out0",
      "target": "2e79b5cf91",
      "points": [
        {
          "x": 640,
          "y": 500
        },
        {
          "x": 1666,
          "y": 353
        }
      ]
    },
    {
      "source": "c89ae008e8",
      "sourcePort": "out0",
      "target": "skill-db4f0f",
      "points": [
        {
          "x": 305,
          "y": 202
        },
        {
          "x": 376,
          "y": 118
        }
      ]
    },
    {
      "source": "fc268d1f01",
      "sourcePort": "out0",
      "target": "2e79b5cf91",
      "points": [
        {
          "x": 1280,
          "y": 435
        },
        {
          "x": 1666,
          "y": 353
        }
      ]
    },
    {
      "source": "skill-4a80e5",
      "sourcePort": "out1",
      "target": "4ceea7face",
      "points": [
        {
          "x": 410,
          "y": 534
        },
        {
          "x": 496,
          "y": 533
        }
      ]
    },
    {
      "source": "skill-4a80e5",
      "sourcePort": "out4",
      "target": "b90ebc9359",
      "points": [
        {
          "x": 410,
          "y": 626
        },
        {
          "x": 766,
          "y": 878
        }
      ]
    },
    {
      "source": "skill-4a80e5",
      "sourcePort": "out2",
      "target": "b95381ca05",
      "points": [
        {
          "x": 410,
          "y": 565
        },
        {
          "x": 511,
          "y": 683
        }
      ]
    },
    {
      "source": "skill-4a80e5",
      "sourcePort": "out0",
      "target": "c0633d1af9",
      "points": [
        {
          "x": 410,
          "y": 504
        },
        {
          "x": 441,
          "y": 388
        }
      ]
    },
    {
      "source": "skill-4a80e5",
      "sourcePort": "out3",
      "target": "skill-5a8c70",
      "points": [
        {
          "x": 410,
          "y": 595
        },
        {
          "x": 711,
          "y": 353
        }
      ]
    },
    {
      "source": "skill-5a8c70",
      "sourcePort": "out3",
      "target": "076ed6651d",
      "points": [
        {
          "x": 910,
          "y": 470
        },
        {
          "x": 1176,
          "y": 628
        }
      ]
    },
    {
      "source": "skill-5a8c70",
      "sourcePort": "out1",
      "target": "7655f64e00",
      "points": [
        {
          "x": 910,
          "y": 409
        },
        {
          "x": 1191,
          "y": 463
        }
      ]
    },
    {
      "source": "skill-5a8c70",
      "sourcePort": "out4",
      "target": "9f488aa73e",
      "points": [
        {
          "x": 910,
          "y": 501
        },
        {
          "x": 1091,
          "y": 798
        }
      ]
    },
    {
      "source": "skill-5a8c70",
      "sourcePort": "out5",
      "target": "b90ebc9359",
      "points": [
        {
          "x": 910,
          "y": 531
        },
        {
          "x": 766,
          "y": 878
        }
      ]
    },
    {
      "source": "skill-5a8c70",
      "sourcePort": "out2",
      "target": "bdc85e917c",
      "points": [
        {
          "x": 910,
          "y": 440
        },
        {
          "x": 976,
          "y": 513
        }
      ]
    },
    {
      "source": "skill-5a8c70",
      "sourcePort": "out0",
      "target": "fc268d1f01",
      "points": [
        {
          "x": 910,
          "y": 379
        },
        {
          "x": 1081,
          "y": 323
        }
      ]
    },
    {
      "source": "skill-b984f0",
      "sourcePort": "out1",
      "target": "cf14dcf4de",
      "points": [
        {
          "x": 2170,
          "y": 399
        },
        {
          "x": 2316,
          "y": 413
        }
      ]
    },
    {
      "source": "skill-db4f0f",
      "sourcePort": "out0",
      "target": "2fa1f3a97d",
      "points": [
        {
          "x": 575,
          "y": 144
        },
        {
          "x": 711,
          "y": 23
        }
      ]
    },
    {
      "source": "skill-db4f0f",
      "sourcePort": "out2",
      "target": "661970d6c6",
      "points": [
        {
          "x": 575,
          "y": 205
        },
        {
          "x": 1056,
          "y": 148
        }
      ]
    },
    {
      "source": "skill-db4f0f",
      "sourcePort": "out1",
      "target": "af63167e58",
      "points": [
        {
          "x": 575,
          "y": 174
        },
        {
          "x": 761,
          "y": 203
        }
      ]
    },
    {
      "source": "skill-db4f0f",
      "sourcePort": "out4",
      "target": "b90ebc9359",
      "points": [
        {
          "x": 575,
          "y": 266
        },
        {
          "x": 766,
          "y": 878
        }
      ]
    },
    {
      "source": "skill-db4f0f",
      "sourcePort": "out3",
      "target": "skill-4a80e5",
      "points": [
        {
          "x": 575,
          "y": 235
        },
        {
          "x": 211,
          "y": 478
        }
      ]
    }
  ]
}