{
  "nodes": [
    {
      "id": "1835459f6c",
      "position": {
        "x": 100,
        "y": 100
      }
    },
    {
      "id": "skill-3f5e46",
      "position": {
        "x": 375,
        "y": 125
      }
    },
    {
      "id": "db18f1526d",
      "position": {
        "x": 580,
        "y": -70
      }
    },
    {
      "id": "1d1dbe1f9a",
      "position": {
        "x": 700,
        "y": 130
      }
    },
    {
      "id": "128c89ee36",
      "position": {
        "x": 790,
        "y": -5
      }
    },
    {
      "id": "246fa9d0c9",
      "position": {
        "x": 810,
        "y": 300
      }
    },
    {
      "id": "7baabc76e7",
      "position": {
        "x": 615,
        "y": 390
      }
    },
    {
      "id": "skill-3022ce",
      "position": {
        "x": 1310,
        "y": 85
      }
    },
    {
      "id": "17d352ef87",
      "position": {
        "x": 1805,
        "y": 240
      }
    }
  ],
  "links": [
    {
      "source": "128c89ee36",
      "sourcePort": "out0",
      "target": "skill-3022ce",
      "points": [
        {
          "x": 990,
          "y": 125
        },
        {
          "x": 1311,
          "y": 102
        }
      ]
    },
    {
      "source": "1835459f6c",
      "sourcePort": "out0",
      "target": "skill-3f5e46",
      "points": [
        {
          "x": 300,
          "y": 199
        },
        {
          "x": 375,
          "y": 142
        }
      ]
    },
    {
      "source": "1d1dbe1f9a",
      "sourcePort": "out0",
      "target": "skill-3022ce",
      "points": [
        {
          "x": 900,
          "y": 260
        },
        {
          "x": 1311,
          "y": 102
        }
      ]
    },
    {
      "source": "db18f1526d",
      "sourcePort": "out0",
      "target": "skill-3022ce",
      "points": [
        {
          "x": 780,
          "y": 42
        },
        {
          "x": 1311,
          "y": 102
        }
      ]
    },
    {
      "source": "skill-3022ce",
      "sourcePort": "out1",
      "target": "17d352ef87",
      "points": [
        {
          "x": 1510,
          "y": 159
        },
        {
          "x": 1806,
          "y": 258
        }
      ]
    },
    {
      "source": "skill-3022ce",
      "sourcePort": "out2",
      "target": "7baabc76e7",
      "points": [
        {
          "x": 1510,
          "y": 190
        },
        {
          "x": 615,
          "y": 408
        }
      ]
    },
    {
      "source": "skill-3f5e46",
      "sourcePort": "out1",
      "target": "128c89ee36",
      "points": [
        {
          "x": 575,
          "y": 199
        },
        {
          "x": 790,
          "y": 13
        }
      ]
    },
    {
      "source": "skill-3f5e46",
      "sourcePort": "out2",
      "target": "1d1dbe1f9a",
      "points": [
        {
          "x": 575,
          "y": 230
        },
        {
          "x": 700,
          "y": 148
        }
      ]
    },
    {
      "source": "skill-3f5e46",
      "sourcePort": "out3",
      "target": "246fa9d0c9",
      "points": [
        {
          "x": 575,
          "y": 260
        },
        {
          "x": 811,
          "y": 317
        }
      ]
    },
    {
      "source": "skill-3f5e46",
      "sourcePort": "out4",
      "target": "7baabc76e7",
      "points": [
        {
          "x": 575,
          "y": 291
        },
        {
          "x": 615,
          "y": 408
        }
      ]
    },
    {
      "source": "skill-3f5e46",
      "sourcePort": "out0",
      "target": "db18f1526d",
      "points": [
        {
          "x": 575,
          "y": 169
        },
        {
          "x": 581,
          "y": -53
        }
      ]
    }
  ]
}