{
  "nodes": [
    {
      "id": "5e19fe4f13",
      "position": {
        "x": 60,
        "y": 70
      }
    },
    {
      "id": "04d5b1f2f5",
      "position": {
        "x": 325,
        "y": -145
      }
    },
    {
      "id": "2b8944188f",
      "position": {
        "x": -165,
        "y": 615
      }
    },
    {
      "id": "d1739bf669",
      "position": {
        "x": 2435,
        "y": 230
      }
    },
    {
      "id": "59eedc64ab",
      "position": {
        "x": 650,
        "y": -110
      }
    },
    {
      "id": "e0a8ce3ba6",
      "position": {
        "x": 365,
        "y": 30
      }
    },
    {
      "id": "d7727ec424",
      "position": {
        "x": 650,
        "y": 75
      }
    },
    {
      "id": "2223ddc1c2",
      "position": {
        "x": 350,
        "y": 380
      }
    },
    {
      "id": "771633e853",
      "position": {
        "x": 350,
        "y": 200
      }
    },
    {
      "id": "07ee367b4e",
      "position": {
        "x": 635,
        "y": 240
      }
    },
    {
      "id": "skill-d6b6fe",
      "position": {
        "x": 2860,
        "y": 215
      }
    },
    {
      "id": "5088c473a9",
      "position": {
        "x": 630,
        "y": 425
      }
    },
    {
      "id": "f75867e6f1",
      "position": {
        "x": 345,
        "y": 565
      }
    },
    {
      "id": "ab14e80a8c",
      "position": {
        "x": 635,
        "y": 610
      }
    },
    {
      "id": "978a2fd2d8",
      "position": {
        "x": 345,
        "y": 740
      }
    },
    {
      "id": "720d4dea8d",
      "position": {
        "x": 645,
        "y": 760
      }
    },
    {
      "id": "d82734e38d",
      "position": {
        "x": 350,
        "y": 900
      }
    },
    {
      "id": "613168fae7",
      "position": {
        "x": 650,
        "y": 945
      }
    },
    {
      "id": "2c01485d7e",
      "position": {
        "x": 365,
        "y": 1070
      }
    },
    {
      "id": "506a8a89d6",
      "position": {
        "x": 650,
        "y": 1105
      }
    },
    {
      "id": "0163ae57a1",
      "position": {
        "x": 365,
        "y": 1255
      }
    },
    {
      "id": "9b64a31f4f",
      "position": {
        "x": 660,
        "y": 1275
      }
    },
    {
      "id": "6fea7e4220",
      "position": {
        "x": 365,
        "y": 1420
      }
    },
    {
      "id": "12351f03d0",
      "position": {
        "x": 675,
        "y": 1450
      }
    },
    {
      "id": "39d5d63767",
      "position": {
        "x": 360,
        "y": 1575
      }
    },
    {
      "id": "f1bfb69713",
      "position": {
        "x": 675,
        "y": 1620
      }
    },
    {
      "id": "ef72f098da",
      "position": {
        "x": 360,
        "y": 1750
      }
    },
    {
      "id": "e91db4a6d3",
      "position": {
        "x": 680,
        "y": 1780
      }
    },
    {
      "id": "0b29d67a16",
      "position": {
        "x": 370,
        "y": 1925
      }
    },
    {
      "id": "73af898b53",
      "position": {
        "x": 695,
        "y": 1960
      }
    },
    {
      "id": "86f3545845",
      "position": {
        "x": 985,
        "y": -105
      }
    },
    {
      "id": "23ec8f11e3",
      "position": {
        "x": 1280,
        "y": -60
      }
    },
    {
      "id": "53eb8ee218",
      "position": {
        "x": 1000,
        "y": 95
      }
    },
    {
      "id": "20209d782f",
      "position": {
        "x": 1295,
        "y": 140
      }
    },
    {
      "id": "56912e87a3",
      "position": {
        "x": 1000,
        "y": 310
      }
    },
    {
      "id": "3a4157b2bb",
      "position": {
        "x": 1315,
        "y": 320
      }
    },
    {
      "id": "aace5d13bc",
      "position": {
        "x": 1020,
        "y": 490
      }
    },
    {
      "id": "a05c3d0db5",
      "position": {
        "x": 1330,
        "y": 525
      }
    },
    {
      "id": "4555016620",
      "position": {
        "x": 1020,
        "y": 700
      }
    },
    {
      "id": "323cf52dc8",
      "position": {
        "x": 1335,
        "y": 700
      }
    },
    {
      "id": "a422362219",
      "position": {
        "x": 1030,
        "y": 860
      }
    },
    {
      "id": "fc7ad07259",
      "position": {
        "x": 1345,
        "y": 865
      }
    },
    {
      "id": "6e306976d3",
      "position": {
        "x": 1025,
        "y": 1035
      }
    },
    {
      "id": "8cdd533018",
      "position": {
        "x": 1360,
        "y": 1070
      }
    },
    {
      "id": "5e1731e5f2",
      "position": {
        "x": 1045,
        "y": 1230
      }
    },
    {
      "id": "3f9e0ffaf5",
      "position": {
        "x": 1375,
        "y": 1275
      }
    },
    {
      "id": "a4f136ddba",
      "position": {
        "x": 1050,
        "y": 1425
      }
    },
    {
      "id": "85076b32be",
      "position": {
        "x": 1365,
        "y": 1475
      }
    },
    {
      "id": "7797eabb19",
      "position": {
        "x": 1065,
        "y": 1630
      }
    },
    {
      "id": "77589b80a2",
      "position": {
        "x": 1375,
        "y": 1670
      }
    },
    {
      "id": "b8d9f955e9",
      "position": {
        "x": 1080,
        "y": 1840
      }
    },
    {
      "id": "5aa96b8a3f",
      "position": {
        "x": 1390,
        "y": 1865
      }
    },
    {
      "id": "d599867af7",
      "position": {
        "x": 3235,
        "y": 345
      }
    }
  ],
  "links": [
    {
      "source": "0163ae57a1",
      "sourcePort": "out0",
      "target": "d1739bf669",
      "points": [
        {
          "x": 565,
          "y": 1385
        },
        {
          "x": 2436,
          "y": 247
        }
      ]
    },
    {
      "source": "04d5b1f2f5",
      "sourcePort": "out0",
      "target": "d1739bf669",
      "points": [
        {
          "x": 525,
          "y": -33
        },
        {
          "x": 2436,
          "y": 247
        }
      ]
    },
    {
      "source": "07ee367b4e",
      "sourcePort": "out0",
      "target": "d1739bf669",
      "points": [
        {
          "x": 835,
          "y": 370
        },
        {
          "x": 2436,
          "y": 247
        }
      ]
    },
    {
      "source": "0b29d67a16",
      "sourcePort": "out0",
      "target": "d1739bf669",
      "points": [
        {
          "x": 570,
          "y": 2055
        },
        {
          "x": 2436,
          "y": 247
        }
      ]
    },
    {
      "source": "12351f03d0",
      "sourcePort": "out0",
      "target": "d1739bf669",
      "points": [
        {
          "x": 875,
          "y": 1580
        },
        {
          "x": 2436,
          "y": 247
        }
      ]
    },
    {
      "source": "20209d782f",
      "sourcePort": "out0",
      "target": "d1739bf669",
      "points": [
        {
          "x": 1495,
          "y": 252
        },
        {
          "x": 2436,
          "y": 247
        }
      ]
    },
    {
      "source": "2223ddc1c2",
      "sourcePort": "out0",
      "target": "d1739bf669",
      "points": [
        {
          "x": 550,
          "y": 510
        },
        {
          "x": 2436,
          "y": 247
        }
      ]
    },
    {
      "source": "23ec8f11e3",
      "sourcePort": "out0",
      "target": "d1739bf669",
      "points": [
        {
          "x": 1480,
          "y": 70
        },
        {
          "x": 2436,
          "y": 247
        }
      ]
    },
    {
      "source": "2b8944188f",
      "sourcePort": "out0",
      "target": "5e19fe4f13",
      "points": [
        {
          "x": 35,
          "y": 714
        },
        {
          "x": 61,
          "y": 88
        }
      ]
    },
    {
      "source": "2c01485d7e",
      "sourcePort": "out0",
      "target": "d1739bf669",
      "points": [
        {
          "x": 565,
          "y": 1200
        },
        {
          "x": 2436,
          "y": 247
        }
      ]
    },
    {
      "source": "323cf52dc8",
      "sourcePort": "out0",
      "target": "d1739bf669",
      "points": [
        {
          "x": 1535,
          "y": 799
        },
        {
          "x": 2436,
          "y": 247
        }
      ]
    },
    {
      "source": "39d5d63767",
      "sourcePort": "out0",
      "target": "d1739bf669",
      "points": [
        {
          "x": 560,
          "y": 1705
        },
        {
          "x": 2436,
          "y": 247
        }
      ]
    },
    {
      "source": "3a4157b2bb",
      "sourcePort": "out0",
      "target": "d1739bf669",
      "points": [
        {
          "x": 1515,
          "y": 450
        },
        {
          "x": 2436,
          "y": 247
        }
      ]
    },
    {
      "source": "3f9e0ffaf5",
      "sourcePort": "out0",
      "target": "d1739bf669",
      "points": [
        {
          "x": 1575,
          "y": 1387
        },
        {
          "x": 2436,
          "y": 247
        }
      ]
    },
    {
      "source": "4555016620",
      "sourcePort": "out0",
      "target": "d1739bf669",
      "points": [
        {
          "x": 1220,
          "y": 799
        },
        {
          "x": 2436,
          "y": 247
        }
      ]
    },
    {
      "source": "506a8a89d6",
      "sourcePort": "out0",
      "target": "d1739bf669",
      "points": [
        {
          "x": 850,
          "y": 1235
        },
        {
          "x": 2436,
          "y": 247
        }
      ]
    },
    {
      "source": "5088c473a9",
      "sourcePort": "out0",
      "target": "d1739bf669",
      "points": [
        {
          "x": 830,
          "y": 555
        },
        {
          "x": 2436,
          "y": 247
        }
      ]
    },
    {
      "source": "53eb8ee218",
      "sourcePort": "out0",
      "target": "d1739bf669",
      "points": [
        {
          "x": 1200,
          "y": 225
        },
        {
          "x": 2436,
          "y": 247
        }
      ]
    },
    {
      "source": "56912e87a3",
      "sourcePort": "out0",
      "target": "d1739bf669",
      "points": [
        {
          "x": 1200,
          "y": 409
        },
        {
          "x": 2436,
          "y": 247
        }
      ]
    },
    {
      "source": "59eedc64ab",
      "sourcePort": "out0",
      "target": "d1739bf669",
      "points": [
        {
          "x": 850,
          "y": 2
        },
        {
          "x": 2436,
          "y": 247
        }
      ]
    },
    {
      "source": "5aa96b8a3f",
      "sourcePort": "out0",
      "target": "d1739bf669",
      "points": [
        {
          "x": 1590,
          "y": 1995
        },
        {
          "x": 2436,
          "y": 247
        }
      ]
    },
    {
      "source": "5e1731e5f2",
      "sourcePort": "out0",
      "target": "d1739bf669",
      "points": [
        {
          "x": 1245,
          "y": 1360
        },
        {
          "x": 2436,
          "y": 247
        }
      ]
    },
    {
      "source": "5e19fe4f13",
      "sourcePort": "out15",
      "target": "0163ae57a1",
      "points": [
        {
          "x": 260,
          "y": 626
        },
        {
          "x": 366,
          "y": 1272
        }
      ]
    },
    {
      "source": "5e19fe4f13",
      "sourcePort": "out0",
      "target": "04d5b1f2f5",
      "points": [
        {
          "x": 260,
          "y": 169
        },
        {
          "x": 326,
          "y": -128
        }
      ]
    },
    {
      "source": "5e19fe4f13",
      "sourcePort": "out23",
      "target": "0b29d67a16",
      "points": [
        {
          "x": 260,
          "y": 870
        },
        {
          "x": 371,
          "y": 1942
        }
      ]
    },
    {
      "source": "5e19fe4f13",
      "sourcePort": "out18",
      "target": "12351f03d0",
      "points": [
        {
          "x": 260,
          "y": 718
        },
        {
          "x": 676,
          "y": 1467
        }
      ]
    },
    {
      "source": "5e19fe4f13",
      "sourcePort": "out28",
      "target": "20209d782f",
      "points": [
        {
          "x": 260,
          "y": 1023
        },
        {
          "x": 1296,
          "y": 157
        }
      ]
    },
    {
      "source": "5e19fe4f13",
      "sourcePort": "out5",
      "target": "2223ddc1c2",
      "points": [
        {
          "x": 260,
          "y": 321
        },
        {
          "x": 351,
          "y": 397
        }
      ]
    },
    {
      "source": "5e19fe4f13",
      "sourcePort": "out26",
      "target": "23ec8f11e3",
      "points": [
        {
          "x": 260,
          "y": 962
        },
        {
          "x": 1281,
          "y": -43
        }
      ]
    },
    {
      "source": "5e19fe4f13",
      "sourcePort": "out47",
      "target": "2b8944188f",
      "points": [
        {
          "x": 260,
          "y": 1602
        },
        {
          "x": -164,
          "y": 633
        }
      ]
    },
    {
      "source": "5e19fe4f13",
      "sourcePort": "out13",
      "target": "2c01485d7e",
      "points": [
        {
          "x": 260,
          "y": 565
        },
        {
          "x": 366,
          "y": 1087
        }
      ]
    },
    {
      "source": "5e19fe4f13",
      "sourcePort": "out34",
      "target": "323cf52dc8",
      "points": [
        {
          "x": 260,
          "y": 1206
        },
        {
          "x": 1336,
          "y": 718
        }
      ]
    },
    {
      "source": "5e19fe4f13",
      "sourcePort": "out19",
      "target": "39d5d63767",
      "points": [
        {
          "x": 260,
          "y": 748
        },
        {
          "x": 361,
          "y": 1592
        }
      ]
    },
    {
      "source": "5e19fe4f13",
      "sourcePort": "out30",
      "target": "3a4157b2bb",
      "points": [
        {
          "x": 260,
          "y": 1084
        },
        {
          "x": 1316,
          "y": 337
        }
      ]
    },
    {
      "source": "5e19fe4f13",
      "sourcePort": "out40",
      "target": "3f9e0ffaf5",
      "points": [
        {
          "x": 260,
          "y": 1389
        },
        {
          "x": 1376,
          "y": 1292
        }
      ]
    },
    {
      "source": "5e19fe4f13",
      "sourcePort": "out33",
      "target": "4555016620",
      "points": [
        {
          "x": 260,
          "y": 1175
        },
        {
          "x": 1021,
          "y": 718
        }
      ]
    },
    {
      "source": "5e19fe4f13",
      "sourcePort": "out14",
      "target": "506a8a89d6",
      "points": [
        {
          "x": 260,
          "y": 596
        },
        {
          "x": 651,
          "y": 1122
        }
      ]
    },
    {
      "source": "5e19fe4f13",
      "sourcePort": "out6",
      "target": "5088c473a9",
      "points": [
        {
          "x": 260,
          "y": 352
        },
        {
          "x": 631,
          "y": 442
        }
      ]
    },
    {
      "source": "5e19fe4f13",
      "sourcePort": "out27",
      "target": "53eb8ee218",
      "points": [
        {
          "x": 260,
          "y": 992
        },
        {
          "x": 1001,
          "y": 113
        }
      ]
    },
    {
      "source": "5e19fe4f13",
      "sourcePort": "out29",
      "target": "56912e87a3",
      "points": [
        {
          "x": 260,
          "y": 1053
        },
        {
          "x": 1001,
          "y": 327
        }
      ]
    },
    {
      "source": "5e19fe4f13",
      "sourcePort": "out1",
      "target": "59eedc64ab",
      "points": [
        {
          "x": 260,
          "y": 199
        },
        {
          "x": 651,
          "y": -93
        }
      ]
    },
    {
      "source": "5e19fe4f13",
      "sourcePort": "out46",
      "target": "5aa96b8a3f",
      "points": [
        {
          "x": 260,
          "y": 1572
        },
        {
          "x": 1391,
          "y": 1882
        }
      ]
    },
    {
      "source": "5e19fe4f13",
      "sourcePort": "out39",
      "target": "5e1731e5f2",
      "points": [
        {
          "x": 260,
          "y": 1358
        },
        {
          "x": 1046,
          "y": 1247
        }
      ]
    },
    {
      "source": "5e19fe4f13",
      "sourcePort": "out12",
      "target": "613168fae7",
      "points": [
        {
          "x": 260,
          "y": 535
        },
        {
          "x": 651,
          "y": 962
        }
      ]
    },
    {
      "source": "5e19fe4f13",
      "sourcePort": "out37",
      "target": "6e306976d3",
      "points": [
        {
          "x": 260,
          "y": 1297
        },
        {
          "x": 1026,
          "y": 1052
        }
      ]
    },
    {
      "source": "5e19fe4f13",
      "sourcePort": "out17",
      "target": "6fea7e4220",
      "points": [
        {
          "x": 260,
          "y": 687
        },
        {
          "x": 366,
          "y": 1437
        }
      ]
    },
    {
      "source": "5e19fe4f13",
      "sourcePort": "out10",
      "target": "720d4dea8d",
      "points": [
        {
          "x": 260,
          "y": 474
        },
        {
          "x": 646,
          "y": 778
        }
      ]
    },
    {
      "source": "5e19fe4f13",
      "sourcePort": "out24",
      "target": "73af898b53",
      "points": [
        {
          "x": 260,
          "y": 901
        },
        {
          "x": 696,
          "y": 1977
        }
      ]
    },
    {
      "source": "5e19fe4f13",
      "sourcePort": "out4",
      "target": "771633e853",
      "points": [
        {
          "x": 260,
          "y": 291
        },
        {
          "x": 351,
          "y": 217
        }
      ]
    },
    {
      "source": "5e19fe4f13",
      "sourcePort": "out44",
      "target": "77589b80a2",
      "points": [
        {
          "x": 260,
          "y": 1511
        },
        {
          "x": 1376,
          "y": 1687
        }
      ]
    },
    {
      "source": "5e19fe4f13",
      "sourcePort": "out43",
      "target": "7797eabb19",
      "points": [
        {
          "x": 260,
          "y": 1480
        },
        {
          "x": 1066,
          "y": 1647
        }
      ]
    },
    {
      "source": "5e19fe4f13",
      "sourcePort": "out42",
      "target": "85076b32be",
      "points": [
        {
          "x": 260,
          "y": 1450
        },
        {
          "x": 1366,
          "y": 1492
        }
      ]
    },
    {
      "source": "5e19fe4f13",
      "sourcePort": "out25",
      "target": "86f3545845",
      "points": [
        {
          "x": 260,
          "y": 931
        },
        {
          "x": 986,
          "y": -88
        }
      ]
    },
    {
      "source": "5e19fe4f13",
      "sourcePort": "out38",
      "target": "8cdd533018",
      "points": [
        {
          "x": 260,
          "y": 1328
        },
        {
          "x": 1361,
          "y": 1087
        }
      ]
    },
    {
      "source": "5e19fe4f13",
      "sourcePort": "out9",
      "target": "978a2fd2d8",
      "points": [
        {
          "x": 260,
          "y": 443
        },
        {
          "x": 346,
          "y": 758
        }
      ]
    },
    {
      "source": "5e19fe4f13",
      "sourcePort": "out16",
      "target": "9b64a31f4f",
      "points": [
        {
          "x": 260,
          "y": 657
        },
        {
          "x": 661,
          "y": 1292
        }
      ]
    },
    {
      "source": "5e19fe4f13",
      "sourcePort": "out32",
      "target": "a05c3d0db5",
      "points": [
        {
          "x": 260,
          "y": 1145
        },
        {
          "x": 1331,
          "y": 543
        }
      ]
    },
    {
      "source": "5e19fe4f13",
      "sourcePort": "out35",
      "target": "a422362219",
      "points": [
        {
          "x": 260,
          "y": 1236
        },
        {
          "x": 1031,
          "y": 877
        }
      ]
    },
    {
      "source": "5e19fe4f13",
      "sourcePort": "out41",
      "target": "a4f136ddba",
      "points": [
        {
          "x": 260,
          "y": 1419
        },
        {
          "x": 1051,
          "y": 1442
        }
      ]
    },
    {
      "source": "5e19fe4f13",
      "sourcePort": "out31",
      "target": "aace5d13bc",
      "points": [
        {
          "x": 260,
          "y": 1114
        },
        {
          "x": 1021,
          "y": 507
        }
      ]
    },
    {
      "source": "5e19fe4f13",
      "sourcePort": "out8",
      "target": "ab14e80a8c",
      "points": [
        {
          "x": 260,
          "y": 413
        },
        {
          "x": 636,
          "y": 628
        }
      ]
    },
    {
      "source": "5e19fe4f13",
      "sourcePort": "out45",
      "target": "b8d9f955e9",
      "points": [
        {
          "x": 260,
          "y": 1541
        },
        {
          "x": 1081,
          "y": 1857
        }
      ]
    },
    {
      "source": "5e19fe4f13",
      "sourcePort": "out3",
      "target": "d7727ec424",
      "points": [
        {
          "x": 260,
          "y": 260
        },
        {
          "x": 651,
          "y": 93
        }
      ]
    },
    {
      "source": "5e19fe4f13",
      "sourcePort": "out11",
      "target": "d82734e38d",
      "points": [
        {
          "x": 260,
          "y": 504
        },
        {
          "x": 351,
          "y": 917
        }
      ]
    },
    {
      "source": "5e19fe4f13",
      "sourcePort": "out2",
      "target": "e0a8ce3ba6",
      "points": [
        {
          "x": 260,
          "y": 230
        },
        {
          "x": 366,
          "y": 48
        }
      ]
    },
    {
      "source": "5e19fe4f13",
      "sourcePort": "out22",
      "target": "e91db4a6d3",
      "points": [
        {
          "x": 260,
          "y": 840
        },
        {
          "x": 681,
          "y": 1797
        }
      ]
    },
    {
      "source": "5e19fe4f13",
      "sourcePort": "out21",
      "target": "ef72f098da",
      "points": [
        {
          "x": 260,
          "y": 809
        },
        {
          "x": 361,
          "y": 1767
        }
      ]
    },
    {
      "source": "5e19fe4f13",
      "sourcePort": "out20",
      "target": "f1bfb69713",
      "points": [
        {
          "x": 260,
          "y": 779
        },
        {
          "x": 676,
          "y": 1637
        }
      ]
    },
    {
      "source": "5e19fe4f13",
      "sourcePort": "out7",
      "target": "f75867e6f1",
      "points": [
        {
          "x": 260,
          "y": 382
        },
        {
          "x": 346,
          "y": 583
        }
      ]
    },
    {
      "source": "5e19fe4f13",
      "sourcePort": "out36",
      "target": "fc7ad07259",
      "points": [
        {
          "x": 260,
          "y": 1267
        },
        {
          "x": 1346,
          "y": 882
        }
      ]
    },
    {
      "source": "613168fae7",
      "sourcePort": "out0",
      "target": "d1739bf669",
      "points": [
        {
          "x": 850,
          "y": 1075
        },
        {
          "x": 2436,
          "y": 247
        }
      ]
    },
    {
      "source": "6e306976d3",
      "sourcePort": "out0",
      "target": "d1739bf669",
      "points": [
        {
          "x": 1225,
          "y": 1165
        },
        {
          "x": 2436,
          "y": 247
        }
      ]
    },
    {
      "source": "6fea7e4220",
      "sourcePort": "out0",
      "target": "d1739bf669",
      "points": [
        {
          "x": 565,
          "y": 1532
        },
        {
          "x": 2436,
          "y": 247
        }
      ]
    },
    {
      "source": "720d4dea8d",
      "sourcePort": "out0",
      "target": "d1739bf669",
      "points": [
        {
          "x": 845,
          "y": 890
        },
        {
          "x": 2436,
          "y": 247
        }
      ]
    },
    {
      "source": "73af898b53",
      "sourcePort": "out0",
      "target": "d1739bf669",
      "points": [
        {
          "x": 895,
          "y": 2090
        },
        {
          "x": 2436,
          "y": 247
        }
      ]
    },
    {
      "source": "771633e853",
      "sourcePort": "out0",
      "target": "07ee367b4e",
      "points": [
        {
          "x": 550,
          "y": 330
        },
        {
          "x": 636,
          "y": 257
        }
      ]
    },
    {
      "source": "77589b80a2",
      "sourcePort": "out0",
      "target": "d1739bf669",
      "points": [
        {
          "x": 1575,
          "y": 1800
        },
        {
          "x": 2436,
          "y": 247
        }
      ]
    },
    {
      "source": "7797eabb19",
      "sourcePort": "out0",
      "target": "d1739bf669",
      "points": [
        {
          "x": 1265,
          "y": 1760
        },
        {
          "x": 2436,
          "y": 247
        }
      ]
    },
    {
      "source": "85076b32be",
      "sourcePort": "out0",
      "target": "d1739bf669",
      "points": [
        {
          "x": 1565,
          "y": 1605
        },
        {
          "x": 2436,
          "y": 247
        }
      ]
    },
    {
      "source": "86f3545845",
      "sourcePort": "out0",
      "target": "d1739bf669",
      "points": [
        {
          "x": 1185,
          "y": -6
        },
        {
          "x": 2436,
          "y": 247
        }
      ]
    },
    {
      "source": "8cdd533018",
      "sourcePort": "out0",
      "target": "d1739bf669",
      "points": [
        {
          "x": 1560,
          "y": 1194
        },
        {
          "x": 2436,
          "y": 247
        }
      ]
    },
    {
      "source": "978a2fd2d8",
      "sourcePort": "out0",
      "target": "d1739bf669",
      "points": [
        {
          "x": 545,
          "y": 870
        },
        {
          "x": 2436,
          "y": 247
        }
      ]
    },
    {
      "source": "9b64a31f4f",
      "sourcePort": "out0",
      "target": "d1739bf669",
      "points": [
        {
          "x": 860,
          "y": 1405
        },
        {
          "x": 2436,
          "y": 247
        }
      ]
    },
    {
      "source": "a05c3d0db5",
      "sourcePort": "out0",
      "target": "d1739bf669",
      "points": [
        {
          "x": 1530,
          "y": 624
        },
        {
          "x": 2436,
          "y": 247
        }
      ]
    },
    {
      "source": "a422362219",
      "sourcePort": "out0",
      "target": "d1739bf669",
      "points": [
        {
          "x": 1230,
          "y": 984
        },
        {
          "x": 2436,
          "y": 247
        }
      ]
    },
    {
      "source": "a4f136ddba",
      "sourcePort": "out0",
      "target": "d1739bf669",
      "points": [
        {
          "x": 1250,
          "y": 1555
        },
        {
          "x": 2436,
          "y": 247
        }
      ]
    },
    {
      "source": "aace5d13bc",
      "sourcePort": "out0",
      "target": "d1739bf669",
      "points": [
        {
          "x": 1220,
          "y": 620
        },
        {
          "x": 2436,
          "y": 247
        }
      ]
    },
    {
      "source": "ab14e80a8c",
      "sourcePort": "out0",
      "target": "d1739bf669",
      "points": [
        {
          "x": 835,
          "y": 709
        },
        {
          "x": 2436,
          "y": 247
        }
      ]
    },
    {
      "source": "b8d9f955e9",
      "sourcePort": "out0",
      "target": "d1739bf669",
      "points": [
        {
          "x": 1280,
          "y": 1939
        },
        {
          "x": 2436,
          "y": 247
        }
      ]
    },
    {
      "source": "d1739bf669",
      "sourcePort": "out0",
      "target": "skill-d6b6fe",
      "points": [
        {
          "x": 2635,
          "y": 274
        },
        {
          "x": 2861,
          "y": 245
        }
      ]
    },
    {
      "source": "d7727ec424",
      "sourcePort": "out0",
      "target": "d1739bf669",
      "points": [
        {
          "x": 850,
          "y": 187
        },
        {
          "x": 2436,
          "y": 247
        }
      ]
    },
    {
      "source": "d82734e38d",
      "sourcePort": "out0",
      "target": "d1739bf669",
      "points": [
        {
          "x": 550,
          "y": 1030
        },
        {
          "x": 2436,
          "y": 247
        }
      ]
    },
    {
      "source": "e0a8ce3ba6",
      "sourcePort": "out0",
      "target": "d1739bf669",
      "points": [
        {
          "x": 565,
          "y": 142
        },
        {
          "x": 2436,
          "y": 247
        }
      ]
    },
    {
      "source": "e91db4a6d3",
      "sourcePort": "out0",
      "target": "d1739bf669",
      "points": [
        {
          "x": 880,
          "y": 1910
        },
        {
          "x": 2436,
          "y": 247
        }
      ]
    },
    {
      "source": "ef72f098da",
      "sourcePort": "out0",
      "target": "d1739bf669",
      "points": [
        {
          "x": 560,
          "y": 1880
        },
        {
          "x": 2436,
          "y": 247
        }
      ]
    },
    {
      "source": "f1bfb69713",
      "sourcePort": "out0",
      "target": "d1739bf669",
      "points": [
        {
          "x": 875,
          "y": 1732
        },
        {
          "x": 2436,
          "y": 247
        }
      ]
    },
    {
      "source": "f75867e6f1",
      "sourcePort": "out0",
      "target": "d1739bf669",
      "points": [
        {
          "x": 545,
          "y": 695
        },
        {
          "x": 2436,
          "y": 247
        }
      ]
    },
    {
      "source": "fc7ad07259",
      "sourcePort": "out0",
      "target": "d1739bf669",
      "points": [
        {
          "x": 1545,
          "y": 989
        },
        {
          "x": 2436,
          "y": 247
        }
      ]
    },
    {
      "source": "skill-d6b6fe",
      "sourcePort": "out0",
      "target": "5e19fe4f13",
      "points": [
        {
          "x": 3060,
          "y": 284
        },
        {
          "x": 61,
          "y": 88
        }
      ]
    },
    {
      "source": "skill-d6b6fe",
      "sourcePort": "out2",
      "target": "d599867af7",
      "points": [
        {
          "x": 3060,
          "y": 345
        },
        {
          "x": 3236,
          "y": 362
        }
      ]
    }
  ]
}