{
  "name": "frage5",
  "utterances": {
    "de": [
      "Gibt es eine Bewerbungsfrist?",
      "Bewerbungsfrist?",
      "Welche Bewerbungsfristen existieren?",
      "Welche Bewerbungsfristen muss man berücksichtigen?",
      "Gibt es mehrere Bewerbungsfristen?",
      "Bis wann muss man sich bewerben?",
      "Wann bewerben wenn Auslandssemester im Herbst?",
      "Wann bewerben wenn Auslandssemester im Frühjahr?",
      "Bis zu welchem Datum muss man sich beworben haben?",
      "Wann ist der letzte Tag an dem man sich bewerben kann?"
    ]
  },
  "slots": [],
  "contexts": [
    "global"
  ]
}