{
  "name": "frage44",
  "utterances": {
    "de": [
      "Welche zusätzlichen Versicherungen brauche ich während meines Auslandsaufenthaltes?",
      "Brauche ich eine Auslandskrankenversicherung?",
      "Krankenversicherung fürs Ausland?",
      "Wann brauche ich eine Zusatzkrankenversicherung?",
      "Wann brauche ich eine Auslandsversicherung?",
      "Wo brauche ich eine Auslandsversicherung?",
      "Wo brauche ich eine Auslandskrankenversicherung?",
      "Wann brauche ich eine Auslandskrankenversicherung?",
      "Welche Krankenversicherung brauche ich im Ausland?",
      "Welche Krankenversicherung brauche ich?",
      "Welche Versicherung brauche ich im Ausland?"
    ]
  },
  "slots": [],
  "contexts": [
    "global"
  ]
}