{
  "name": "frage20",
  "utterances": {
    "de": [
      "Wenn es vorkommt, dass Klausuren nicht bestanden werden, werden sie in Deutschland nachgeholt?",
      "Werden Klausuren in Deutschland nachgeschrieben?",
      "Wo werden Klausuren nachgeschrieben?",
      "Wo werden nicht bestandene Klausuren nachgeschrieben?",
      "Muss ich Klausuren im Ausland nachschreiben?",
      "Klausuren nachschreiben?",
      "Klausuren aus dem Ausland nachschreiben?",
      "Wo muss ich meine Klausuren nachschreiben?",
      "In welchem Land muss ich die Klausur nachschreiben?",
      "Muss ich in Deutschland die Klausuren nachschreiben?",
      "Wo muss ich Klausuren nachschreiben?"
    ]
  },
  "slots": [],
  "contexts": [
    "global"
  ]
}