{
  "name": "frage34",
  "utterances": {
    "de": [
      "Wo kann ich Antragsformulare für das Auslands-BAföG finden?",
      "Wo finde ich das Formular für das Auslands-BAföG?",
      "Bafög für das Auslandssemester, wo finde ich das?",
      "Auslands-BAföG, wo gibt es das Antragsformular?",
      "Antragsformular für Auslands-BAföG?",
      "Wo gibt es das Formular für das Bafög Auslandssemester?",
      "Formular für Auslands-BAföG?",
      "Wie finde ich das Formular für das Bafög?",
      "Bafög Auslandssemester, wo gibt es das?",
      "Antragsformular Bafög wo finde ich das?",
      "Bafög Auslandssemester",
      "Bafög im Ausland"
    ]
  },
  "slots": [],
  "contexts": [
    "global"
  ]
}