{
  "name": "frage38",
  "utterances": {
    "de": [
      "Ist es Pflicht, einen Erfahrungsbericht zu schreiben?",
      "Ist der Erfahrungsbericht verpflichtend?",
      "Muss ich einen Erfahrunsgbericht schreiben?",
      "Ist der Erfahrungsbericht eine Pflicht?",
      "Gibt es eine Erfahrungsberichtpflicht?",
      "Ist es verpflichtend einen Erfahrungsbericht zu schreiben?",
      "Muss ein Erfahrungsbericht geschrieben werden?",
      "Muss ein Bericht über das Auslandssemester geschrieben werden?",
      "Muss ich einen Erfahrungsbericht verfassen?",
      "Gibt es eine Pflicht zum Schreiben eines Erfahrungsberichtes?",
      "Ist der Erfahrungsbericht ein muss?"
    ]
  },
  "slots": [],
  "contexts": [
    "global"
  ]
}