{
  "name": "frage19",
  "utterances": {
    "de": [
      "Wer ist an der DHBW für die Notenumrechnung verantwortlich?",
      "Wer ist für die Notenumrechnung verantwortlich?",
      "Wer ist zuständig für die Notenumrechnung?",
      "Zuständigkeit der Notenumrechnung?",
      "Wer ist für die Umrechnung der Noten verantwortlich?",
      "Wie erfolgt die Notenumrechnung?",
      "Wer ist für die Notenumrechnung an der DHBW verantwortlich?",
      "Notenumrechnung?",
      "Wie erfolgt die Notenumrechnung?",
      "Wie werden die Noten aus dem Ausland angerechnet?",
      "Umrechnung der Leistungen aus dem Ausland?"
    ]
  },
  "slots": [],
  "contexts": [
    "global"
  ]
}