{
  "name": "frage45",
  "utterances": {
    "de": [
      "Bieten die Gasthochschulen Krankenversicherungen an?",
      "Gibt es eine Krankenversicherung der Gasthochschule?",
      "Gibt es eine Krankenversicherung von der Gasthochschule aus?",
      "Gibt es eine Krankenversicherung der Partnerhochschule?",
      "Gibt es eine Krankenversicherung von der Partnerhochschule aus?",
      "Gibt es Pflichtversicherungen an den Gasthochschulen?",
      "Gibt es Pflichtversicherungen an der Partnerhochschule?",
      "Muss ich die Krankenversicherung der Hochschule abschließen?",
      "Muss ich die Krankenversicherung der Gasthochschule abschließen?",
      "Ist die Krankenversicherung der Gasthochschule eine Pflicht?",
      "Ist die Krankenversicherung der Partnerhochschule eine Pflicht?"
    ]
  },
  "slots": [],
  "contexts": [
    "global"
  ]
}