{
  "name": "frage31",
  "utterances": {
    "de": [
      "Was ist ein „Motivationsschreiben“?",
      "Was ist ein Motivationsschreiben?",
      "Wobei handelt es sich bei einem Motivationsschreiben?",
      "Motivationsschreiben, was ist das?",
      "Motivationsschreiben wobei handelt es sich dabei?",
      "Was muss in ein Motivationsschreiben?",
      "Was muss ich in das Motivationsschreiben alles rein schreiben?",
      "Inhalt für das Motivationsschreiben",
      "Motivationsschreiben, worum geht es da?",
      "Für was ist das Motivationsschreiben?",
      "Oft Motivationsschreiben gelesen, was ist das?"
    ]
  },
  "slots": [],
  "contexts": [
    "global"
  ]
}