{
  "name": "frage7",
  "utterances": {
    "de": [
      "Wie erfolgt der Bewerbungsprozess?",
      "Wie läuft der Bewerbungsprozess ab?",
      "Wie erfolgt eine Bewerbung fürs Auslandssemester?",
      "Welche Schritte muss ich beim Bewerbungsprozess beachten?",
      "Schritte des Bewerbungsprozesses?",
      "Was muss ich bei der Bewerbung beachten?",
      "Ablauf des Bewerbungsprozesses?",
      "Wie erfolgt der Bewerbungsprozess?",
      "Wie läuft der Bewerbungsprozess ab?",
      "Wie erfolgt eine Bewerbung fürs Auslandssemester?",
      "Welche Schritte muss ich beim Bewerbungsprozess beachten?",
      "Schritte des Bewerbungsprozesses?",
      "Was muss ich bei der Bewerbung beachten?",
      "Ablauf des Bewerbungsprozesses?"
    ]
  },
  "slots": [],
  "contexts": [
    "global"
  ]
}