{
  "name": "frage42",
  "utterances": {
    "de": [
      "Brauche ich einen Reisepass?",
      "Wird ein Reisepass benötigt?",
      "Benötige ich einen Reisepass fürs Auslandssemester?",
      "Wird ein Reisepass benötigt fürs Auslandssemester?",
      "Benötige ich einen Reisepass?",
      "Muss ich einen Reisepass haben?",
      "Brauche ich einen Reisepass fürs Auslandssemester?",
      "Ist ein Reisepass fürs Auslandssemester notwendig?",
      "Ist der Reisepass notwendig?",
      "Ist ein Reisepass notwendig?",
      "Brauche ich einen Reisepass?"
    ]
  },
  "slots": [],
  "contexts": [
    "global"
  ]
}