{
  "name": "frage35",
  "utterances": {
    "de": [
      "Unterstützt mich auch meine Firma finanziell, wenn ich im Ausland eine Theorie- oder Praxisphase verbringe?",
      "Bekomme ich auch von meinem Unternehmen finanzielle Hilfe für ein Auslandssemester?",
      "Gibt mir mein Unternehmen eine finanzielle Unterstützung falls ich ein Auslandssemester mache?",
      "Bekomme ich von meiner Firma finanzielle Unterstützung, wenn ich eine Theoriephase im Ausland mache?",
      "Falls ich eine Praxisphase im Ausland mache, unterstützt mich dann meine Firma finanziell?",
      "Wenn ich ein Semester im Ausland mache, bekomme ich dann eine finanzielle Unterstützung von meinem Unternehmen?",
      "Geld von Firma wenn ich eine Theoriephase im Ausland mache?",
      "Gibt mir meine Firma Geld wenn ich meine Praxisphase im Ausland mache?",
      "Finanzielle Unterstützung von meiner Firma für das Auslandssemester?",
      "Gibt es finanzielle Unterstützung von meinem Unternehmen wenn ich im Ausland bin?"
    ]
  },
  "slots": [],
  "contexts": [
    "global"
  ]
}