{
  "nodes": [
    {
      "id": "498117",
      "position": {}
    },
    {
      "id": "306632",
      "position": {}
    },
    {
      "id": "839179",
      "position": {}
    },
    {
      "id": "636815",
      "position": {}
    }
  ]
}