{
  "version": "0.0.1",
  "catchAll": {
    "next": []
  },
  "startNode": "entry",
  "skillData": {
    "randomId": "t6yxho5g34",
    "contentId": "builtin_single-choice-B-bls6",
    "invalidContentId": "",
    "keywords": {
      "frage11": [
        "frage11",
        "Test"
      ],
      "frage12": [
        "frage12",
        "Test"
      ],
      "frage13": [
        "frage13",
        "Test"
      ],
      "flow_end": [
        "flow_end",
        "Meine Frage ist nicht dabei. "
      ]
    },
    "config": {
      "nbMaxRetries": 3,
      "repeatChoicesOnInvalid": false
    }
  },
  "nodes": [
    {
      "name": "entry",
      "onEnter": [
        "say #!builtin_single-choice-B-bls6 {\"skill\":\"choice\"}"
      ],
      "next": [
        {
          "condition": "true",
          "node": "parse"
        }
      ],
      "id": "775801"
    },
    {
      "name": "parse",
      "onReceive": [
        "basic-skills/choice_parse_answer {\"randomId\":\"t6yxho5g34\",\"contentId\":\"builtin_single-choice-B-bls6\",\"invalidContentId\":\"\",\"keywords\":{\"frage11\":[\"frage11\",\"Test\"],\"frage12\":[\"frage12\",\"Test\"],\"frage13\":[\"frage13\",\"Test\"],\"flow_end\":[\"flow_end\",\"Meine Frage ist nicht dabei. \"]},\"config\":{\"nbMaxRetries\":3,\"repeatChoicesOnInvalid\":false}}"
      ],
      "next": [
        {
          "condition": "temp['skill-choice-valid-t6yxho5g34'] === true",
          "node": "#"
        },
        {
          "condition": "true",
          "node": "invalid"
        }
      ],
      "triggers": [
        {
          "conditions": [
            {
              "id": "always"
            }
          ]
        }
      ],
      "onEnter": [],
      "id": "240209"
    },
    {
      "name": "invalid",
      "onEnter": [
        "basic-skills/choice_invalid_answer {\"randomId\":\"t6yxho5g34\"}"
      ],
      "next": [
        {
          "condition": "Number(temp['skill-choice-invalid-count-t6yxho5g34']) > Number(3)",
          "node": "#"
        },
        {
          "condition": "true",
          "node": "sorry"
        }
      ],
      "id": "129239"
    },
    {
      "name": "sorry",
      "onEnter": [],
      "next": [
        {
          "condition": "true",
          "node": "parse"
        }
      ],
      "id": "418452"
    }
  ]
}