{
  "version": "0.0.1",
  "catchAll": {
    "next": []
  },
  "startNode": "entry",
  "skillData": {
    "randomId": "lfriesodan",
    "contentId": "builtin_single-choice-uRqvTf",
    "invalidContentId": "",
    "keywords": {
      "frage1": [
        "frage1",
        "Welche Kosten sind zu berücksichtigen und wie hoch fallen diese aus?"
      ],
      "frage2": [
        "frage2",
        "Wer hat die Kosten für die Unterbringung zu tragen und wer hilft bei der Suche?"
      ],
      "frage3": [
        "frage3",
        "Werde ich meine monatliche Vergütung während meines Aufenthaltes im Ausland weiter bekommen?"
      ],
      "frage4": [
        "frage4",
        "Gibt es Möglichkeiten zur finanziellen Unterstützung?"
      ],
      "frage5": [
        "frage5",
        "Welche Voraussetzungen muss ich für ein Auslandsstipendium erfüllen?"
      ],
      "flow_end": [
        "flow_end",
        "Meine Frage ist nicht dabei."
      ]
    },
    "config": {
      "nbMaxRetries": 3,
      "repeatChoicesOnInvalid": false
    }
  },
  "nodes": [
    {
      "name": "entry",
      "onEnter": [
        "say #!builtin_single-choice-uRqvTf {\"skill\":\"choice\"}"
      ],
      "next": [
        {
          "condition": "true",
          "node": "parse"
        }
      ],
      "id": "882214"
    },
    {
      "name": "parse",
      "onReceive": [
        "basic-skills/choice_parse_answer {\"randomId\":\"lfriesodan\",\"contentId\":\"builtin_single-choice-uRqvTf\",\"invalidContentId\":\"\",\"keywords\":{\"frage1\":[\"frage1\",\"Welche Kosten sind zu berücksichtigen und wie hoch fallen diese aus?\"],\"frage2\":[\"frage2\",\"Wer hat die Kosten für die Unterbringung zu tragen und wer hilft bei der Suche?\"],\"frage3\":[\"frage3\",\"Werde ich meine monatliche Vergütung während meines Aufenthaltes im Ausland weiter bekommen?\"],\"frage4\":[\"frage4\",\"Gibt es Möglichkeiten zur finanziellen Unterstützung?\"],\"frage5\":[\"frage5\",\"Welche Voraussetzungen muss ich für ein Auslandsstipendium erfüllen?\"],\"flow_end\":[\"flow_end\",\"Meine Frage ist nicht dabei.\"]},\"config\":{\"nbMaxRetries\":3,\"repeatChoicesOnInvalid\":false}}"
      ],
      "next": [
        {
          "condition": "temp['skill-choice-valid-lfriesodan'] === true",
          "node": "#"
        },
        {
          "condition": "true",
          "node": "invalid"
        }
      ],
      "triggers": [
        {
          "conditions": [
            {
              "id": "always"
            }
          ]
        }
      ],
      "onEnter": [],
      "id": "606385"
    },
    {
      "name": "invalid",
      "onEnter": [
        "basic-skills/choice_invalid_answer {\"randomId\":\"lfriesodan\"}"
      ],
      "next": [
        {
          "condition": "Number(temp['skill-choice-invalid-count-lfriesodan']) > Number(3)",
          "node": "#"
        },
        {
          "condition": "true",
          "node": "sorry"
        }
      ],
      "id": "203027"
    },
    {
      "name": "sorry",
      "onEnter": [],
      "next": [
        {
          "condition": "true",
          "node": "parse"
        }
      ],
      "id": "766384"
    }
  ]
}