{
  "nodes": [
    {
      "id": "828629",
      "position": {}
    },
    {
      "id": "881832",
      "position": {}
    },
    {
      "id": "706831",
      "position": {}
    },
    {
      "id": "242049",
      "position": {}
    }
  ]
}