{
  "nodes": [
    {
      "id": "207171",
      "position": {}
    },
    {
      "id": "762355",
      "position": {}
    },
    {
      "id": "884261",
      "position": {}
    },
    {
      "id": "563120",
      "position": {}
    }
  ]
}