{
  "nodes": [
    {
      "id": "374445",
      "position": {}
    },
    {
      "id": "276882",
      "position": {}
    },
    {
      "id": "631279",
      "position": {}
    },
    {
      "id": "652114",
      "position": {}
    }
  ]
}