{
  "nodes": [
    {
      "id": "737032",
      "position": {}
    },
    {
      "id": "395870",
      "position": {}
    },
    {
      "id": "854104",
      "position": {}
    },
    {
      "id": "494562",
      "position": {}
    }
  ]
}