{
  "nodes": [
    {
      "id": "409919",
      "position": {}
    },
    {
      "id": "318530",
      "position": {}
    },
    {
      "id": "156008",
      "position": {}
    },
    {
      "id": "756247",
      "position": {}
    }
  ]
}