{
  "version": "0.0.1",
  "catchAll": {
    "next": []
  },
  "startNode": "entry",
  "skillData": {
    "randomId": "0mwe05br5d",
    "contentId": "builtin_single-choice-bn7EMH",
    "invalidContentId": "",
    "keywords": {
      "frage1": [
        "frage1",
        "Wo finde ich eine Übersicht der Semesterzeiten der ausländischen Hochschulen?"
      ],
      "frage2": [
        "frage2",
        "Sind Beginn und Ende des Auslandssemesters mit dem der DHBW identisch?"
      ],
      "frage3": [
        "frage3",
        "Was kann ich machen, wenn das Auslandsstudium die Theoriephase an der DHBW in Stuttgart überschreitet?"
      ],
      "flow_end": [
        "flow_end",
        "Meine Frage ist nicht dabei"
      ]
    },
    "config": {
      "nbMaxRetries": 3,
      "repeatChoicesOnInvalid": false
    }
  },
  "nodes": [
    {
      "name": "entry",
      "onEnter": [
        "say #!builtin_single-choice-bn7EMH {\"skill\":\"choice\"}"
      ],
      "next": [
        {
          "condition": "true",
          "node": "parse"
        }
      ],
      "id": "838601"
    },
    {
      "name": "parse",
      "onReceive": [
        "basic-skills/choice_parse_answer {\"randomId\":\"0mwe05br5d\",\"contentId\":\"builtin_single-choice-bn7EMH\",\"invalidContentId\":\"\",\"keywords\":{\"frage1\":[\"frage1\",\"Wo finde ich eine Übersicht der Semesterzeiten der ausländischen Hochschulen?\"],\"frage2\":[\"frage2\",\"Sind Beginn und Ende des Auslandssemesters mit dem der DHBW identisch?\"],\"frage3\":[\"frage3\",\"Was kann ich machen, wenn das Auslandsstudium die Theoriephase an der DHBW in Stuttgart überschreitet?\"],\"flow_end\":[\"flow_end\",\"Meine Frage ist nicht dabei\"]},\"config\":{\"nbMaxRetries\":3,\"repeatChoicesOnInvalid\":false}}"
      ],
      "next": [
        {
          "condition": "temp['skill-choice-valid-0mwe05br5d'] === true",
          "node": "#"
        },
        {
          "condition": "true",
          "node": "invalid"
        }
      ],
      "triggers": [
        {
          "conditions": [
            {
              "id": "always"
            }
          ]
        }
      ],
      "onEnter": [],
      "id": "783551"
    },
    {
      "name": "invalid",
      "onEnter": [
        "basic-skills/choice_invalid_answer {\"randomId\":\"0mwe05br5d\"}"
      ],
      "next": [
        {
          "condition": "Number(temp['skill-choice-invalid-count-0mwe05br5d']) > Number(3)",
          "node": "#"
        },
        {
          "condition": "true",
          "node": "sorry"
        }
      ],
      "id": "765787"
    },
    {
      "name": "sorry",
      "onEnter": [],
      "next": [
        {
          "condition": "true",
          "node": "parse"
        }
      ],
      "id": "096480"
    }
  ]
}