{
  "version": "0.0.1",
  "catchAll": {
    "next": []
  },
  "startNode": "entry",
  "skillData": {
    "randomId": "xnkfn7hvhs",
    "contentId": "builtin_single-choice-aeHHcM",
    "invalidContentId": "",
    "keywords": {
      "ja": [
        "ja",
        "Ja"
      ],
      "nein": [
        "nein",
        "Nein"
      ]
    },
    "config": {
      "nbMaxRetries": 3,
      "repeatChoicesOnInvalid": false
    }
  },
  "nodes": [
    {
      "name": "entry",
      "onEnter": [
        "say #!builtin_single-choice-aeHHcM {\"skill\":\"choice\"}"
      ],
      "next": [
        {
          "condition": "true",
          "node": "parse"
        }
      ],
      "id": "460612"
    },
    {
      "name": "parse",
      "onReceive": [
        "basic-skills/choice_parse_answer {\"randomId\":\"xnkfn7hvhs\",\"contentId\":\"builtin_single-choice-aeHHcM\",\"invalidContentId\":\"\",\"keywords\":{\"ja\":[\"ja\",\"Ja\"],\"nein\":[\"nein\",\"Nein\"]},\"config\":{\"nbMaxRetries\":3,\"repeatChoicesOnInvalid\":false}}"
      ],
      "next": [
        {
          "condition": "temp['skill-choice-valid-xnkfn7hvhs'] === true",
          "node": "#"
        },
        {
          "condition": "true",
          "node": "invalid"
        }
      ],
      "triggers": [
        {
          "conditions": [
            {
              "id": "always"
            }
          ]
        }
      ],
      "onEnter": [],
      "id": "502670"
    },
    {
      "name": "invalid",
      "onEnter": [
        "basic-skills/choice_invalid_answer {\"randomId\":\"xnkfn7hvhs\"}"
      ],
      "next": [
        {
          "condition": "Number(temp['skill-choice-invalid-count-xnkfn7hvhs']) > Number(3)",
          "node": "#"
        },
        {
          "condition": "true",
          "node": "sorry"
        }
      ],
      "id": "205901"
    },
    {
      "name": "sorry",
      "onEnter": [],
      "next": [
        {
          "condition": "true",
          "node": "parse"
        }
      ],
      "id": "711552"
    }
  ]
}